AT4BR exercise 6
…
data("iris")

paged_table(iris)

2. Transforming the wide table to a long table

I merge columns that contain petal or sepal size (length or width) into two columns and name them Trait with the category and Size with its value. This table is saved as iris_long.

iris_long <- iris %>% 
  pivot_longer(cols=matches("Petal|Sepal"), names_to = "Trait", values_to = "Size")

iris_long

# A tibble: 600 × 3
   Species Trait         Size
   <fct>   <chr>        <dbl>
 1 setosa  Sepal.Length   5.1
 2 setosa  Sepal.Width    3.5
 3 setosa  Petal.Length   1.4
 4 setosa  Petal.Width    0.2
 5 setosa  Sepal.Length   4.9
 6 setosa  Sepal.Width    3  
 7 setosa  Petal.Length   1.4
 8 setosa  Petal.Width    0.2
 9 setosa  Sepal.Length   4.7
10 setosa  Sepal.Width    3.2
# ℹ 590 more rows
…
